{"success":true,"data":[{"_id":"6900611be1f8389f4a3514df","nameAr":"يوم التاسيس","nameEn":"Foundingday","descriptionAr":"تاريخ تاسيس المملكة العربية السعوية","descriptionEn":"","imageUrl":"https://res.cloudinary.com/djpl34pm6/image/upload/v1756380330/9_aqbhq5.png","slug":"foundingday"},{"_id":"68e30c52a49a6bd24b440bb8","nameAr":"يوم الحب","nameEn":"Valentine's Day","descriptionAr":"مناسبة رومانسية للاحتفال بالحب والعلاقات العاطفية","descriptionEn":"A romantic occasion to celebrate love and relationships","imageUrl":"https://res.cloudinary.com/djpl34pm6/image/upload/v1756380331/11_fn5kci.png","slug":"valentines-day"},{"_id":"68e30c52a49a6bd24b440bbb","nameAr":"يوم الأم","nameEn":"Mother's Day","descriptionAr":"مناسبة خاصة لتكريم الأمهات وتقدير تضحياتهن","descriptionEn":"A special occasion to honor mothers and appreciate their sacrifices","imageUrl":"https://res.cloudinary.com/djpl34pm6/image/upload/v1756380319/10_irszez.png","slug":"mothers-day"},{"_id":"6915f55d1076837308fe269f","nameAr":"تمنيات بالشفاء","nameEn":"Get well soon","descriptionAr":"تمنيات بالشفاء","descriptionEn":"Get well soon","imageUrl":"https://res.cloudinary.com/djpl34pm6/image/upload/v1756319267/profile_pictures/kjwdtqxsj0cmruvao6xy.png","slug":"get-well-soon"},{"_id":"68e30c52a49a6bd24b440bbe","nameAr":"عيد الأضحى","nameEn":"Eid al-Adha","descriptionAr":"عيد الأضحى المبارك، مناسبة دينية مهمة للمسلمين","descriptionEn":"Eid al-Adha, an important religious occasion for Muslims","imageUrl":"https://res.cloudinary.com/djpl34pm6/image/upload/v1756380331/2_v0y9ih.png","slug":"eid-al-adha"},{"_id":"68e30c52a49a6bd24b440bc1","nameAr":"أيام الميلاد","nameEn":"Birthdays","descriptionAr":"مناسبة الاحتفال بيوم الميلاد السنوي","descriptionEn":"The occasion of celebrating the annual birthday","imageUrl":"https://res.cloudinary.com/djpl34pm6/image/upload/v1756380301/4_yking7.png","slug":"birthdays"},{"_id":"68e30c52a49a6bd24b440bc4","nameAr":"شكر","nameEn":"Thank You","descriptionAr":"مناسبة للتعبير عن الامتنان والتقدير","descriptionEn":"An occasion to express gratitude and appreciation","imageUrl":"https://res.cloudinary.com/djpl34pm6/image/upload/v1756380331/11_fn5kci.png","slug":"thank-you"},{"_id":"68e30c53a49a6bd24b440bca","nameAr":"زفاف","nameEn":"Wedding","descriptionAr":"يييييييييييييييييييييييييي","descriptionEn":"يييييييييييييييييييييييييي","imageUrl":"https://res.cloudinary.com/djpl34pm6/image/upload/v1756380294/7_s7wisp.png","slug":"wedding"},{"_id":"68e30c53a49a6bd24b440bcd","nameAr":"التخرج","nameEn":"Graduation","descriptionAr":"مناسبة الاحتفال بالتخرج والنجاح الأكاديمي","descriptionEn":"The occasion of celebrating graduation and academic success","imageUrl":"https://res.cloudinary.com/djpl34pm6/image/upload/v1756380324/5_dsmjak.png","slug":"graduation"},{"_id":"68e30c53a49a6bd24b440bd0","nameAr":"عيد الفطر","nameEn":"Eid al-Fitr","descriptionAr":"عيد الفطر المبارك، مناسبة دينية مهمة للمسلمين","descriptionEn":"Eid al-Fitr, an important religious occasion for Muslims","imageUrl":"https://res.cloudinary.com/djpl34pm6/image/upload/v1756380280/1_x582mj.png","slug":"eid-al-fitr"}],"pagination":{"currentPage":1,"totalPages":2,"totalItems":11,"itemsPerPage":10,"hasNextPage":true,"hasPrevPage":false},"cached":false,"message":"تم جلب البيانات بنجاح","timestamp":"2025-12-05T13:03:50.424Z"}